K5 Topography export data
…
To convert this data to cartesian coordinates, we first need to parse the values from the text file:

Code

ptn <- r"(Seg:\s*(\d+)\s*y=\s*(\S+)\s*x=\s*(\S+))"
tbl_topo <- tbl_topo |>
  rowwise() |>
  transmute(
    seg = raw |> str_match(ptn) |> c() |> nth(2) |> as.numeric(), # seg: ...
    l = raw |> str_match(ptn) |> c() |> nth(3) |> as.numeric(),   # y= ...
    z = raw |> str_match(ptn) |> c() |> nth(4) |> as.numeric()    # x= ...
  ) |> ungroup()
tbl_topo

# A tibble: 3,512 × 3
     seg     l        z
   <dbl> <dbl>    <dbl>
 1     0   0   0       
 2     0   0.1 0.000664
 3     0   0.2 0.00264 
 4     0   0.3 0.00593 
 5     0   0.4 0.0106  
 6     0   0.5 0.0165  
 7     0   0.6 0.0238  
 8     0   0.7 0.0324  
 9     0   0.8 0.0424  
10     0   0.9 0.0537  
# ℹ 3,502 more rows
…
